…
#This changes any missing values like "." into NAs.
chic_health <- na_if(chic_health, ".")
chic_lang <- na_if(chic_lang, ".")
```

The data sets are now tidy and ready to be joined.

## Join/ Merge

``` r
chic_lang
```

    ## # A tibble: 78 x 43
    ##    Community Community.Name `NON-ENGLISH.LA~ Percent.under.w~ AFRICAN.LANGUAG~
    ##        <dbl> <chr>          <chr>            <chr>                       <dbl>
    ##  1         1 Rogers Park    SPANISH          9                             332
    ##  2         2 West Ridge     SPANISH          8                             374
    ##  3         3 Uptown         SPANISH          4                             750
    ##  4         4 Lincoln Square SPANISH          8                             127
    ##  5         5 North Center   SPANISH          4                               0
    ##  6         6 Lake View      SPANISH          1                             425
    ##  7         7 Lincoln Park   SPANISH          1                              53
    ##  8         8 Near North Si~ SPANISH          1                              51
    ##  9         9 Edison Park    POLISH           2                               0
    ## 10        10 Norwood Park   POLISH           6                               0
    ## # ... with 68 more rows, and 38 more variables: ARABIC <dbl>, ARMENIAN <dbl>,
    ## #   `CAMBODIAN.(MON-KHMER)` <dbl>, CHINESE <dbl>, CREOLE <dbl>, FRENCH <dbl>,
    ## #   GERMAN <dbl>, GREEK <dbl>, GUJARATI <dbl>, HEBREW <dbl>, HINDI <dbl>,
    ## #   HMONG <dbl>, HUNGARIAN <dbl>, ITALIAN <dbl>, JAPANESE <dbl>, KOREAN <dbl>,
    ## #   LAOTIAN <dbl>, NAVAJO <dbl>, OTHER.ASIAN <dbl>, OTHER.INDIC <dbl>,
    ## #   OTHER.INDO.EURPOEAN <dbl>, OTHER.NATIVE.NORTH.AMERICAN <dbl>,
    ## #   OTHER.PACIFIC.ISLAND <dbl>, OTHER.SLAVIC <dbl>, OTHER.WEST.GERMANIC <dbl>,
    ## #   PERSIAN <dbl>, POLISH <dbl>, PORTUGUESE <dbl>, RUSSIAN <dbl>,
    ## #   SCANDINAVIAN <dbl>, `SERBO-CROATIAN` <dbl>, SPANISH <dbl>, TAGALOG <dbl>,
…
#Fixed percent and gonorrhea.m being chr, now is numeric.
chicago <- chicago%>%
  mutate_at(vars(`Percent.under.well`),as.numeric)%>%
  mutate_at(vars(`Gonorrhea.M`),as.numeric)
```

    ## Warning: Problem with `mutate()` input `Percent.under.well`.
    ## i NAs introduced by coercion
    ## i Input `Percent.under.well` is `.Primitive("as.double")(Percent.under.well)`.

``` r
chicago
```

    ## # A tibble: 77 x 70
    ##    Community.x Community.Name Birth.Rate General.Fert.Ra~ Low.Birth.Weight
    ##          <dbl> <chr>               <dbl>            <dbl>            <dbl>
    ##  1           1 Rogers Park          16.4             62               11  
    ##  2           2 West Ridge           17.3             83.3              8.1
    ##  3           3 Uptown               13.1             50.5              8.3
    ##  4           4 Lincoln Square       17.1             61                8.1
    ##  5           5 North Center         22.4             76.2              9.1
    ##  6           6 Lake View            13.5             38.7              6.3
    ##  7           7 Lincoln Park         13.2             38.7              6.6
    ##  8           8 Near North Si~       10.7             35.9              8.6
    ##  9           9 Edison Park          11.3             59.5              7.9
    ## 10          10 Norwood Park         10.4             59.6              4.9
    ## # ... with 67 more rows, and 65 more variables: Prenatal.Care.First.Trim <dbl>,
    ## #   Preterm.Births <dbl>, Teen.Birth.Rate <dbl>, `Assault.(Homicide)` <dbl>,
    ## #   Breast.Cancer.F <dbl>, `Cancer.(All.Sites)` <dbl>, Colorectal.Cancer <dbl>,
    ## #   `Diabetes-related` <dbl>, `Firearm-related` <dbl>, Infant.Mort.Rate <dbl>,
    ## #   Lung.Cancer <dbl>, Prostate.Cancer.M <dbl>, Stroke <dbl>,
    ## #   Childhood.Blood.Lead.level <dbl>, Childhood.Lead.Poisoning <dbl>,
    ## #   Gonorrhea.F <dbl>, Gonorrhea.M <dbl>, TB <dbl>, Below.Poverty.Level <dbl>,
    ## #   Crowded.Housing <dbl>, Dependency <dbl>, No.HS.Diploma <dbl>,
    ## #   Per.Capita.Income <dbl>, Unemployment <dbl>, `NON-ENGLISH.LANG` <chr>,
…
## Logistic Regression

``` r
# Logistic regression predicting high or low cancer rate than average based on % English and per capita income
chic.glm <- chicagoplus%>%
  
  #make cancer.death a binary response
  mutate(y = ifelse(cancer.death == "high", 1, 0))%>%
  filter(!is.na(Percent.under.well))

# chic.glm will the the dataset I use
chic.glm
```

    ## # A tibble: 75 x 76
    ##    Community.x Community.Name Birth.Rate General.Fert.Ra~ Low.Birth.Weight
    ##          <dbl> <chr>               <dbl>            <dbl>            <dbl>
    ##  1           1 Rogers Park          16.4             62               11  
    ##  2           2 West Ridge           17.3             83.3              8.1
    ##  3           3 Uptown               13.1             50.5              8.3
    ##  4           4 Lincoln Square       17.1             61                8.1
    ##  5           5 North Center         22.4             76.2              9.1
    ##  6           6 Lake View            13.5             38.7              6.3
    ##  7           7 Lincoln Park         13.2             38.7              6.6
    ##  8           8 Near North Si~       10.7             35.9              8.6
    ##  9           9 Edison Park          11.3             59.5              7.9
    ## 10          10 Norwood Park         10.4             59.6              4.9
    ## # ... with 65 more rows, and 71 more variables: Prenatal.Care.First.Trim <dbl>,
    ## #   Preterm.Births <dbl>, Teen.Birth.Rate <dbl>, `Assault.(Homicide)` <dbl>,
    ## #   Breast.Cancer.F <dbl>, `Cancer.(All.Sites)` <dbl>, Colorectal.Cancer <dbl>,
    ## #   `Diabetes-related` <dbl>, `Firearm-related` <dbl>, Infant.Mort.Rate <dbl>,
    ## #   Lung.Cancer <dbl>, Prostate.Cancer.M <dbl>, Stroke <dbl>,
    ## #   Childhood.Blood.Lead.level <dbl>, Childhood.Lead.Poisoning <dbl>,
    ## #   Gonorrhea.F <dbl>, Gonorrhea.M <dbl>, TB <dbl>, Below.Poverty.Level <dbl>,
    ## #   Crowded.Housing <dbl>, Dependency <dbl>, No.HS.Diploma <dbl>,
    ## #   Per.Capita.Income <dbl>, Unemployment <dbl>, `NON-ENGLISH.LANG` <chr>,
…
According to the confusion matrix, my models accuracy was 0.73, the
sensitivity 0.62, the specificity 0.89, and the precision 0.86. The
worst predictor was for identifying communities higher-than-US-baseline
cancer deaths (sensitivity). It was better at correctly identifying
communities with lower-than-US-baseline cancer deaths (specificity).
Overall the accuracy and precision of the model are good.

``` r
# Predicting log-odds from model
chic.glm$logit <- predict(fit1, type = "link") 
chic.glm
```

    ## # A tibble: 75 x 79
    ##    Community.x Community.Name Birth.Rate General.Fert.Ra~ Low.Birth.Weight
    ##          <dbl> <chr>               <dbl>            <dbl>            <dbl>
    ##  1           1 Rogers Park          16.4             62               11  
    ##  2           2 West Ridge           17.3             83.3              8.1
    ##  3           3 Uptown               13.1             50.5              8.3
    ##  4           4 Lincoln Square       17.1             61                8.1
    ##  5           5 North Center         22.4             76.2              9.1
    ##  6           6 Lake View            13.5             38.7              6.3
    ##  7           7 Lincoln Park         13.2             38.7              6.6
    ##  8           8 Near North Si~       10.7             35.9              8.6
    ##  9           9 Edison Park          11.3             59.5              7.9
    ## 10          10 Norwood Park         10.4             59.6              4.9
    ## # ... with 65 more rows, and 74 more variables: Prenatal.Care.First.Trim <dbl>,
    ## #   Preterm.Births <dbl>, Teen.Birth.Rate <dbl>, `Assault.(Homicide)` <dbl>,
    ## #   Breast.Cancer.F <dbl>, `Cancer.(All.Sites)` <dbl>, Colorectal.Cancer <dbl>,
    ## #   `Diabetes-related` <dbl>, `Firearm-related` <dbl>, Infant.Mort.Rate <dbl>,
    ## #   Lung.Cancer <dbl>, Prostate.Cancer.M <dbl>, Stroke <dbl>,
    ## #   Childhood.Blood.Lead.level <dbl>, Childhood.Lead.Poisoning <dbl>,
    ## #   Gonorrhea.F <dbl>, Gonorrhea.M <dbl>, TB <dbl>, Below.Poverty.Level <dbl>,
    ## #   Crowded.Housing <dbl>, Dependency <dbl>, No.HS.Diploma <dbl>,
    ## #   Per.Capita.Income <dbl>, Unemployment <dbl>, `NON-ENGLISH.LANG` <chr>,
…
